{
	"type": "radio",
	"label": "Select one option.",
	"name": "dynamic-form-ui-radio",
	"options": [
		{
			"label": "Option 1",
			"value": "option1"
		},
		{
			"label": "Option 2",
			"value": "option2"
		},
		{
			"label": "Option 3",
			"value": "option3"
		}
	]
}
